([('example-tut-by-test.exe',
   'c:\\Lemmi\\tut-by-test\\build\\example-tut-by-test\\example-tut-by-test.exe',
   'EXECUTABLE'),
  ('example-tut-by-test.exe.manifest',
   'c:\\Lemmi\\tut-by-test\\build\\example-tut-by-test\\example-tut-by-test.exe.manifest',
   'BINARY'),
  ('VCRUNTIME140.dll',
   'c:\\users\\user\\appdata\\local\\programs\\python\\python35-32\\VCRUNTIME140.dll',
   'BINARY'),
  ('python35.dll',
   'c:\\users\\user\\appdata\\local\\programs\\python\\python35-32\\python35.dll',
   'BINARY'),
  ('_ssl',
   'c:\\users\\user\\appdata\\local\\programs\\python\\python35-32\\DLLs\\_ssl.pyd',
   'EXTENSION'),
  ('unicodedata',
   'c:\\users\\user\\appdata\\local\\programs\\python\\python35-32\\DLLs\\unicodedata.pyd',
   'EXTENSION'),
  ('_ctypes',
   'c:\\users\\user\\appdata\\local\\programs\\python\\python35-32\\DLLs\\_ctypes.pyd',
   'EXTENSION'),
  ('pyexpat',
   'c:\\users\\user\\appdata\\local\\programs\\python\\python35-32\\DLLs\\pyexpat.pyd',
   'EXTENSION'),
  ('_hashlib',
   'c:\\users\\user\\appdata\\local\\programs\\python\\python35-32\\DLLs\\_hashlib.pyd',
   'EXTENSION'),
  ('select',
   'c:\\users\\user\\appdata\\local\\programs\\python\\python35-32\\DLLs\\select.pyd',
   'EXTENSION'),
  ('_bz2',
   'c:\\users\\user\\appdata\\local\\programs\\python\\python35-32\\DLLs\\_bz2.pyd',
   'EXTENSION'),
  ('_lzma',
   'c:\\users\\user\\appdata\\local\\programs\\python\\python35-32\\DLLs\\_lzma.pyd',
   'EXTENSION'),
  ('_socket',
   'c:\\users\\user\\appdata\\local\\programs\\python\\python35-32\\DLLs\\_socket.pyd',
   'EXTENSION'),
  ('base_library.zip',
   'c:\\Lemmi\\tut-by-test\\build\\example-tut-by-test\\base_library.zip',
   'DATA'),
  ('selenium\\webdriver\\firefox\\webdriver_prefs.json',
   'c:\\users\\user\\appdata\\local\\programs\\python\\python35-32\\lib\\site-packages\\selenium\\webdriver\\firefox\\webdriver_prefs.json',
   'DATA'),
  ('selenium\\webdriver\\firefox\\webdriver.xpi',
   'c:\\users\\user\\appdata\\local\\programs\\python\\python35-32\\lib\\site-packages\\selenium\\webdriver\\firefox\\webdriver.xpi',
   'DATA')],)
