('c:\\Lemmi\\tut-by-test\\build\\example-tut-by-test\\example-tut-by-test.exe',
 True,
 False,
 True,
 None,
 None,
 False,
 False,
 '<?xml version="1.0" encoding="UTF-8" standalone="yes"?><assembly manifestVersion="1.0" xmlns="urn:schemas-microsoft-com:asm.v1"><assemblyIdentity name="example-tut-by-test" processorArchitecture="x86" type="win32" version="1.0.0.0"/><compatibility xmlns="urn:schemas-microsoft-com:compatibility.v1"><application><supportedOS Id="{8e0f7a12-bfb3-4fe8-b9a5-48fd50a15a9a}"/><supportedOS Id="{1f676c76-80e1-4239-95bb-83d0f6d0da78}"/><supportedOS Id="{35138b9a-5d96-4fbd-8e2d-a2440225f93a}"/><supportedOS Id="{e2011457-1546-43c5-a5fe-008deee3d3f0}"/><supportedOS Id="{4a2f28e3-53b9-4441-ba9c-d69d4a4a6e38}"/></application></compatibility></assembly>',
 True,
 'example-tut-by-test.pkg',
 [('out00-PYZ.pyz',
   'c:\\Lemmi\\tut-by-test\\build\\example-tut-by-test\\out00-PYZ.pyz',
   'PYZ'),
  ('struct',
   'c:\\users\\user\\appdata\\local\\programs\\python\\python35-32\\lib\\struct.pyo',
   'PYMODULE'),
  ('pyimod01_os_path',
   'c:\\users\\user\\appdata\\local\\programs\\python\\python35-32\\lib\\site-packages\\PyInstaller\\loader\\pyimod01_os_path.pyc',
   'PYMODULE'),
  ('pyimod02_archive',
   'c:\\users\\user\\appdata\\local\\programs\\python\\python35-32\\lib\\site-packages\\PyInstaller\\loader\\pyimod02_archive.pyc',
   'PYMODULE'),
  ('pyimod03_importers',
   'c:\\users\\user\\appdata\\local\\programs\\python\\python35-32\\lib\\site-packages\\PyInstaller\\loader\\pyimod03_importers.pyc',
   'PYMODULE'),
  ('pyiboot01_bootstrap',
   'c:\\users\\user\\appdata\\local\\programs\\python\\python35-32\\lib\\site-packages\\PyInstaller\\loader\\pyiboot01_bootstrap.py',
   'PYSOURCE'),
  ('example-tut-by-test',
   'c:\\Lemmi\\tut-by-test\\example-tut-by-test.py',
   'PYSOURCE'),
  ('example-tut-by-test.exe.manifest',
   'c:\\Lemmi\\tut-by-test\\build\\example-tut-by-test\\example-tut-by-test.exe.manifest',
   'BINARY')],
 [],
 False,
 False,
 1477302634,
 [('run.exe',
   'c:\\users\\user\\appdata\\local\\programs\\python\\python35-32\\lib\\site-packages\\PyInstaller\\bootloader\\Windows-32bit\\run.exe',
   'EXECUTABLE')])
