('c:\\Lemmi\\tut-by-test\\build\\example-tut-by-test\\out00-PKG.pkg',
 {'BINARY': 1,
  'DATA': 1,
  'EXECUTABLE': 1,
  'EXTENSION': 1,
  'PYMODULE': 1,
  'PYSOURCE': 1,
  'PYZ': 0},
 [('out00-PYZ.pyz',
   'c:\\Lemmi\\tut-by-test\\build\\example-tut-by-test\\out00-PYZ.pyz',
   'PYZ'),
  ('struct',
   'c:\\users\\user\\appdata\\local\\programs\\python\\python35-32\\lib\\struct.pyo',
   'PYMODULE'),
  ('pyimod01_os_path',
   'c:\\users\\user\\appdata\\local\\programs\\python\\python35-32\\lib\\site-packages\\PyInstaller\\loader\\pyimod01_os_path.pyc',
   'PYMODULE'),
  ('pyimod02_archive',
   'c:\\users\\user\\appdata\\local\\programs\\python\\python35-32\\lib\\site-packages\\PyInstaller\\loader\\pyimod02_archive.pyc',
   'PYMODULE'),
  ('pyimod03_importers',
   'c:\\users\\user\\appdata\\local\\programs\\python\\python35-32\\lib\\site-packages\\PyInstaller\\loader\\pyimod03_importers.pyc',
   'PYMODULE'),
  ('pyiboot01_bootstrap',
   'c:\\users\\user\\appdata\\local\\programs\\python\\python35-32\\lib\\site-packages\\PyInstaller\\loader\\pyiboot01_bootstrap.py',
   'PYSOURCE'),
  ('example-tut-by-test',
   'c:\\Lemmi\\tut-by-test\\example-tut-by-test.py',
   'PYSOURCE'),
  ('example-tut-by-test.exe.manifest',
   'c:\\Lemmi\\tut-by-test\\build\\example-tut-by-test\\example-tut-by-test.exe.manifest',
   'BINARY')],
 True,
 False,
 False)
